0 0.00393009185791 1000000000.0 120000000000.0
0 3.00578689575 250000000.0 29666666666.7
0 4.00475096703 166666666.667 20000000000.0
0 7.0136680603 250000000.0 29800000000.0
0 8.62054991722 1000000000.0 79600000000.0
0 11.7163629532 1000000000.0 79600000000.0
1 3.00578689575 750000000.0 90166666666.7
1 4.00475096703 666666666.667 80000000000.0
1 7.0061519146 666666666.667 80000000000.0
2 4.00475096703 166666666.667 20000000000.0
2 7.0136680603 750000000.0 90000000000.0
2 8.61854910851 750000000.0 90000000000.0
